{
  "id": "MOST",
  "status": "已交接 (Handover)",
  "path": "ilod",
  "title": "Intelligent Linked Open Data",
  "theme": {
    "degree": 200,
    "color": "#E68D13",
    "backgroundColor": "#4484F533"
  },
  "intro": "Intelligent Linked Open Data，簡稱「iLOD」，為智慧化公開資料彙整系統，是指導教授的三年期科技部計畫，目的為將現今雖高透明度但無結構且低品質的政府公開資料，進行自動化彙整作業，提供高品質的API服務，使政府公開資料得以被更廣泛地應用在各類服務及開發上。\n於 2019 年由教授指派，自學長承接 iLOD 系統，接手後將第一年期多為手動彙整的作業，根據彙整步驟歸納出其規則模式，設計一套接近全自動化的流程，讓資料自動彙整並儲存至資料庫中的自動化系統。\n此專案數是我目前碰過最大的數據資料 (萬筆資料集，百萬筆資料列)，若要分析則必須活用所學的資料庫與分析技術，才能將的如此龐大的公開資料在有效率的時間內完成分析與索引，讓數 TB 的分析結果資料能夠在短時間內 (標準值為一秒內) 完成搜尋快查與取得目標物件關聯。",
  "breadcrumb": [
    {
      "name": "Portfolio",
      "href": "/"
    },
    {
      "name": "Projects"
    },
    {
      "name": "iLOD",
      "href": "/project/ilod"
    }
  ],
  "tools": {
    "description": "開發環境：MVC (React + Node Express + MSSQL)",
    "list": [
      {
        "title": "前端開發",
        "items": [
          ["React.JS", "https://reactjs.org"],
          ["React Redux", "https://react-redux.js.org"],
          ["SASS", "https://sass-lang.com"],
          ["Webpack", "https://webpack.js.org"],
          ["Axios", "https://axios-http.com"]
        ]
      },
      {
        "title": "後端開發",
        "items": [
          ["Node JS", "https://nodejs.org/en/docs"],
          ["Node Express", "https://expressjs.com"],
          ["Node MSSQL", "https://github.com/tediousjs/node-mssql#readme"],
          ["RESTful"]
        ]
      },
      {
        "title": "資料擷取與處理",
        "items": [
          ["SQL Server", "https://www.microsoft.com/en-us/sql-server"],
          ["Python 3", "https://www.python.org/"],
          ["Python Selenium", "https://selenium-python.readthedocs.io"],
          ["Beautiful Soup", "https://www.crummy.com/software/BeautifulSoup/bs4/doc"],
          ["SQLAlchemy", "https://www.sqlalchemy.org"]
          
        ]
      }
    ]
  },
  "contribution": {
    "time": "2019年 ~ 2020年",
    "content": [
      "◎ 優化系統 Database Schema 結構，使分析資料能夠更有效被使用",
      "◎ 設計自動化分析系統與程序，使資料的獲取達到自動化",
      "◎ 改良文字搜尋引擎邏輯，使資料能夠更快速且精確地取得搜尋物件"
    ]
  }
}