{
  "id": "SPARK_AMPLIFY",
  "status": "進行中 (In Progress)",
  "path": "spark-amplify",
  "title": "SparkAmplify",
  "theme": {
    "degree": 200,
    "color": "#01A0C3",
    "backgroundColor": "#0055BD33"
  },
  "intro": "SparkAmplify 是精準式媒體行銷 SaaS 平台，主要業務為協助品牌於國際媒體曝光及社群意見領袖互動，進而達到媒體曝光的效益。\nCore-Code Tech 的合作是我的第一個有正式簽約的外包協力合作案，而我所負責的項目便是協助開發 SparkAmplify 服務的新需求。在合作的角色上我是一個「全端工程師」，但是由於自身對於後端的理解仍停留在自主學習的範疇中，因而便是以「前端」做為合作的主要協力合作項目，而當後端有需要協助處理的項目時才以「後端支援」的角度輔助的開發項目的進行。\n而 SparkAmplify 作為一個以廣告投放為主要業務的產品，對於我而言是一個陌生的領域，但目前合作上也都仍算順利，並且我十分期待能藉此了解更多有關廣告投放相關的背景知識與技術。\n目前我主要參與的開發項目是前後端分離的環境建置，其主因是因為 SparkAmplify 的開發是完全使用 Next JS 的前後端機制來進行開發，雖然有透過 lerna 來拆分功能區塊，但是前後端並沒有真正的分離，因此部屬資源與開發環境限制的問題變得尤其明顯，而為達到更佳的開發環境，目前是以分離前後端為主要開發任務。",
  "breadcrumb": [
    {
      "name": "Portfolio",
      "href": "/"
    },
    {
      "name": "Projects"
    },
    {
      "name": "SparkAmplify",
      "href": "/project/spark-amplify"
    }
  ],
  "tools": {
    "description": "開發環境：Next JS + TypeScript + Lerna (Monorepo)",
    "list": [
      {
        "title": "前端開發",
        "items": [
          ["Next.JS", "https://nextjs.org/"],
          ["React.JS", "https://reactjs.org"],
          ["React Class Component", "https://reactjs.org/docs/react-component.html"],
          ["React Redux", "https://react-redux.js.org"],
          ["Redux Saga", "https://redux-saga.js.org"],
          ["Material-UI v5", "https://v5.mui.com"],
          ["Styled Component", "https://styled-components.com"],
          ["Webpack", "https://webpack.js.org"]
        ]
      },
      {
        "title": "開發風格",
        "items": [
          ["ESLint (Airbnb)", "https://github.com/airbnb/javascript"],
          ["Lerna", "https://lerna.js.org/"],
          ["ECMAScript 7"],
          ["Gitflow"],
          ["Conventional Commits", "https://www.conventionalcommits.org/en/v1.0.0/"]
        ]
      },
      {
        "title": "測試工具",
        "items": [
          ["Jest", "https://jestjs.io"]
        ]
      }
    ]
  },
  "contribution": {
    "time": "2021 年 10 月 ~ 現在",
    "content": [
      "◎ 與 Core-Code Tech 保持長期合作關係，協助各類前端新需求的功能開發。",
      "◎ 協助處理因為前後端架構未完整切割導致開發效率不佳的問題，將前端的結構重新架構分離。"
    ]
  }
}