{
  "id": "TAITRA",
  "status": "已交接 (Handover)",
  "path": "taitra",
  "title": "Taitra 台灣外貿協會行政服務平台",
  "theme": {
    "degree": 200,
    "color": "#3f75FF",
    "backgroundColor": "#3f75FF33"
  },
  "intro": "Taitra (台灣外貿協會行政服務平台) 是台灣外貿協會內部用於處理各項業務簽核流程的服務平台，一共分為一般人員使用的「前台」與管理者操控權限的「後台」兩個部分。\nTaitra 是我在 Cloud Interactive (以下簡稱 CI) 參與的第一個專案，這個專案在我參與的時候已經是進入長期維護的狀態，但客戶每週還是會有新需求，算是以一週至二週一個 Release 的節奏進行開發與上版。\n而這個專案也是我參與時間最長的一個專案，後續的三個參與的專案都有與這個專案進行時間重疊，而「有能力同時能夠處理多個專案」也是我的團隊的 EU Manager 最初期望我能達到的能力。\n此專案讓過去幾乎只有獨立開發經驗的我第一次的了解到一個完整的專案開發團隊的組成、專案開發工具的使用、專案上版機制流程等，對我而言是一個十分重要的經驗，它也奠定了我後續參與各項專案的思考原則與方向。",
  "breadcrumb": [
    {
      "name": "Portfolio",
      "href": "/"
    },
    {
      "name": "Projects"
    },
    {
      "name": "Taitra",
      "href": "/project/taitra"
    }
  ],
  "tools": {
    "description": "開發環境：React JS",
    "list": [
      {
        "title": "前端開發",
        "items": [
          ["React.JS", "https://reactjs.org"],
          ["React Redux", "https://react-redux.js.org"],
          ["Formik", "https://formik.org"],
          ["Material-UI v4", "https://v4.mui.com"],
          ["SASS", "https://sass-lang.com"],
          ["Yup", "https://www.npmjs.com/package/yup"],
          ["Webpack", "https://webpack.js.org"],
          ["Axios", "https://axios-http.com"]
        ]
      },
      {
        "title": "開發風格",
        "items": [
          ["ESLint (Standard)", "https://standardjs.com"],
          ["Prettier", "https://prettier.io"],
          ["Gitflow"],
          ["ECMAScript 6"]
        ]
      }
    ]
  },
  "contribution": {
    "time": "2021 年 06 月 ~ 2022 年 02 月",
    "content": [
      "◎ 即便是在與其他專案重疊的情況下，在我參與 Taitra 開發的期間未曾發生過 Delay 的情形，並且多數來說都是能夠提前完成的",
      "◎ 順利完成每週需求開發，並最後完成交接"
    ]
  }
}