{
  "id": "TSMC_ONLINE",
  "status": "進行中 (In Progress)",
  "path": "tsmc-online",
  "title": "TSMC Online",
  "theme": {
    "degree": 200,
    "color": "#F46969",
    "backgroundColor": "#E4292933"
  },
  "intro": "TSMC Online 是台積電用於管理員工、合作公司、廠商對於各報表、文件的存取權限控管的平台網站。這個專案與 Cloud Interactive (以下簡稱 CI) 的合作是以台積電後端工程師提供 Mock Server 作為模擬後端，而 CI 專職開發前端進行的服務。\nTSMC Online 也是我在 Cloud Interactive 參與的第四個專案，是我在 CI 參與的最後一個專案，但卻也是我在 CI 所加入的專案中影響我最為深遠的一個專案。\n起初在參與專案的前期如同前兩個專案，皆是以支援的角色加入，但是其實在我參與開發初期，這項專案的狀態並不太好，是呈現一個進度在 Delay 邊緣，卻又同時被 Requirement 和 Issue 夾殺的緊張時期，而最後於資深的前輩與 Project Manager 盡責的帶領下，所幸是有漸漸地進入相對穩定開發的狀態，而從前期就進入開發的我的角色定位也從一開始的支援面為主，慢慢的成為了其中一個主力開發，並也多次得到作為分配部分開發的開發領導角色之一的機會。\n我十分感謝能夠得到主管們的賞識提供我這樣的機會，並在多次進行下來也從主管們的回饋中明白到，或許我沒辦法像資深前輩那般擁有精熟的判斷力，但是作為一個小組的領頭，我也是有能力達到足夠合格、被信任的標準的。",
  "breadcrumb": [
    {
      "name": "Portfolio",
      "href": "/"
    },
    {
      "name": "Projects"
    },
    {
      "name": "TSMC-Online",
      "href": "/project/tsmc-online"
    }
  ],
  "tools": {
    "description": "開發環境：React JS + TypeScript",
    "list": [
      {
        "title": "前端開發",
        "items": [
          ["React.JS", "https://reactjs.org"],
          ["React Hooks", "https://reactjs.org/docs/hooks-intro.html"],
          ["React Context", "https://reactjs.org/docs/context.html"],
          ["React Hook Form", "https://react-hook-form.com"],
          ["Material-UI v4", "https://v4.mui.com"],
          ["Styled Component", "https://styled-components.com"],
          ["Yup", "https://www.npmjs.com/package/yup"],
          ["Webpack", "https://webpack.js.org"],
          ["Apollo GraphQL", "https://www.apollographql.com"]
        ]
      },
      {
        "title": "開發風格",
        "items": [
          ["ESLint (Airbnb)", "https://github.com/airbnb/javascript"],
          ["Gitflow"],
          ["ECMAScript 7"]
        ]
      },
      {
        "title": "測試工具",
        "items": [
          ["Jest", "https://jestjs.io"]
        ]
      }
    ]
  },
  "contribution": {
    "time": "2021 年 10 月 ~ 現在",
    "content": [
      "◎ 穩定開發使專案能夠逐步跟上 Project Manager 所規劃的時程進度",
      "◎ 若開發狀況順利，提前完成當次 Sprint，便會再透過 Refactor 的方式重新整理、統合專案中的各類型 Component，協助優化難以閱讀結構混亂的程式結構",
      "◎ 在 Project Manager 的規劃下，帶領二至三人的開發小組進行開發分配與分工，並掌握各人員的開發進度以利於 Project Manager 控制時程安排",
      "◎ 在專案主要角色出現突發狀況的時候，替代其職責，被指派作為代理繼續協助開發進行"
    ]
  }
}